{
    "usageCount": 0, 
    "omitTrigger": false, 
    "prompt": false, 
    "description": "crow's claw", 
    "abbreviation": {
        "wordChars": "[\\w]", 
        "abbreviations": [
            "crows claw"
        ], 
        "immediate": false, 
        "ignoreCase": false, 
        "backspace": true, 
        "triggerInside": false
    }, 
    "hotkey": {
        "hotKey": null, 
        "modifiers": []
    }, 
    "modes": [
        1
    ], 
    "showInTrayMenu": false, 
    "matchCase": false, 
    "filter": {
        "regex": null, 
        "isRecursive": false
    }, 
    "type": "phrase", 
    "sendMode": "kb"
}